{
  "patients": [
    {
      "id": "123e4567-e89b-12d3-a456-426614174002",
      "name": "Alice Johnson",
      "email": "alice.johnson@example.com",
      "address": "789 Oak St, Capital City",
      "dateOfBirth": "1978-03-12"
    },
    {
      "id": "123e4567-e89b-12d3-a456-426614174003",
      "name": "Bob Brown",
      "email": "bob.brown@example.com",
      "address": "321 Pine St, Springfield",
      "dateOfBirth": "1982-11-30"
    }
  ],
  "page": 1,
  "size": 2,
  "totalPages": 10,
  "totalElements": 19
}