{
  "patients": [
    {
      "id": "4468340a-f88f-48dc-98b0-77081bed7a4a",
      "name": "John Doe with billing account with kafka3",
      "email": "john_billing_kafka3@example.com",
      "address": "123 main street22",
      "dateOfBirth": "1995-09-09"
    },
    {
      "id": "00148a7d-30d7-41dd-8ca6-0e401f7fbe9f",
      "name": "John Doe with billing account with kafka2",
      "email": "john_billing_kafka2@example.com",
      "address": "123 main street22",
      "dateOfBirth": "1995-09-09"
    }
  ],
  "page": 1,
  "size": 2,
  "totalPages": 3,
  "totalElements": 6
}